gen: 0 fittest: -22.24 second: -30.72
fittest:
304314255310253003302334540143434043121115251010352300300540445054121415252050535524203141521335313452045531125215512245511314212253545331051003505051115044154124214052340232554000411510313530101442121554325200354304131000252124500352422400000

